EESchema Schematic File Version 2
LIBS:power
LIBS:device
LIBS:transistors
LIBS:conn
LIBS:linear
LIBS:regul
LIBS:74xx
LIBS:cmos4000
LIBS:adc-dac
LIBS:memory
LIBS:xilinx
LIBS:microcontrollers
LIBS:dsp
LIBS:microchip
LIBS:analog_switches
LIBS:motorola
LIBS:texas
LIBS:intel
LIBS:audio
LIBS:interface
LIBS:digital-audio
LIBS:philips
LIBS:display
LIBS:cypress
LIBS:siliconi
LIBS:opto
LIBS:atmel
LIBS:contrib
LIBS:valves
LIBS:ina226
LIBS:ok-opto
LIBS:mppt-cache
EELAYER 25 0
EELAYER END
$Descr A4 11693 8268
encoding utf-8
Sheet 1 1
Title ""
Date ""
Rev ""
Comp ""
Comment1 ""
Comment2 ""
Comment3 ""
Comment4 ""
$EndDescr
$Comp
L CONN_01X02 P1
U 1 1 55EB0E53
P 1650 1700
F 0 "P1" H 1650 1850 50  0000 C CNN
F 1 "Panel" V 1750 1700 50  0000 C CNN
F 2 "Connect:Banana_Jack_2Pin" H 1650 1700 60  0001 C CNN
F 3 "" H 1650 1700 60  0000 C CNN
	1    1650 1700
	-1   0    0    -1  
$EndComp
$Comp
L GND #PWR3
U 1 1 55EB0ED0
P 2150 2000
F 0 "#PWR3" H 2150 1750 50  0001 C CNN
F 1 "GND" H 2150 1850 50  0000 C CNN
F 2 "" H 2150 2000 60  0000 C CNN
F 3 "" H 2150 2000 60  0000 C CNN
	1    2150 2000
	1    0    0    -1  
$EndComp
Wire Wire Line
	2150 2000 2150 1750
$Comp
L CONN_01X02 P2
U 1 1 55EB0EEE
P 4800 1650
F 0 "P2" H 4800 1800 50  0000 C CNN
F 1 "Cells" V 4900 1650 50  0000 C CNN
F 2 "Connect:Banana_Jack_2Pin" H 4800 1650 60  0001 C CNN
F 3 "" H 4800 1650 60  0000 C CNN
	1    4800 1650
	1    0    0    -1  
$EndComp
$Comp
L GND #PWR13
U 1 1 55EB0F85
P 4350 1950
F 0 "#PWR13" H 4350 1700 50  0001 C CNN
F 1 "GND" H 4350 1800 50  0000 C CNN
F 2 "" H 4350 1950 60  0000 C CNN
F 3 "" H 4350 1950 60  0000 C CNN
	1    4350 1950
	1    0    0    -1  
$EndComp
Wire Wire Line
	4350 1700 4350 1950
Wire Wire Line
	4350 1700 4600 1700
$Comp
L C_Small C1
U 1 1 55EB0FFE
P 2300 1650
F 0 "C1" H 2310 1720 50  0000 L CNN
F 1 "2200uF" H 2310 1570 50  0000 L CNN
F 2 "Capacitors_Elko_ThroughHole:Elko_vert_20x10mm_RM5_CopperClear" H 2300 1650 60  0001 C CNN
F 3 "" H 2300 1650 60  0000 C CNN
	1    2300 1650
	1    0    0    -1  
$EndComp
$Comp
L C_Small C2
U 1 1 55EB1053
P 2450 1650
F 0 "C2" H 2460 1720 50  0000 L CNN
F 1 "2u2" H 2460 1570 50  0000 L CNN
F 2 "Capacitors_Elko_ThroughHole:Elko_vert_11x5mm_RM2" H 2450 1650 60  0001 C CNN
F 3 "" H 2450 1650 60  0000 C CNN
	1    2450 1650
	1    0    0    -1  
$EndComp
Connection ~ 2150 1750
Connection ~ 2300 1750
Connection ~ 2300 1550
Connection ~ 2450 1550
$Comp
L R R2
U 1 1 55EB110A
P 2750 1700
F 0 "R2" V 2830 1700 50  0000 C CNN
F 1 "R" V 2750 1700 50  0000 C CNN
F 2 "Resistors_SMD:R_0603_HandSoldering" V 2680 1700 30  0001 C CNN
F 3 "" H 2750 1700 30  0000 C CNN
	1    2750 1700
	1    0    0    -1  
$EndComp
$Comp
L R R3
U 1 1 55EB112B
P 2750 2000
F 0 "R3" V 2830 2000 50  0000 C CNN
F 1 "R" V 2750 2000 50  0000 C CNN
F 2 "Resistors_SMD:R_0603_HandSoldering" V 2680 2000 30  0001 C CNN
F 3 "" H 2750 2000 30  0000 C CNN
	1    2750 2000
	1    0    0    -1  
$EndComp
$Comp
L GND #PWR7
U 1 1 55EB1162
P 2750 2150
F 0 "#PWR7" H 2750 1900 50  0001 C CNN
F 1 "GND" H 2750 2000 50  0000 C CNN
F 2 "" H 2750 2150 60  0000 C CNN
F 3 "" H 2750 2150 60  0000 C CNN
	1    2750 2150
	1    0    0    -1  
$EndComp
Text Label 2800 1850 0    60   ~ 0
vPanel
Wire Wire Line
	2800 1850 2750 1850
Connection ~ 2750 1550
Wire Wire Line
	3450 1550 3650 1550
$Comp
L L_Small L1
U 1 1 55EB131A
P 3750 1550
F 0 "L1" H 3780 1590 50  0000 L CNN
F 1 "L_Small" H 3780 1510 50  0000 L CNN
F 2 "Inductors_NEOSID:Neosid_Inductor_Sd14" H 3750 1550 60  0001 C CNN
F 3 "" H 3750 1550 60  0000 C CNN
	1    3750 1550
	0    -1   -1   0   
$EndComp
$Comp
L C_Small C5
U 1 1 55EB13D9
P 3950 1650
F 0 "C5" H 3960 1720 50  0000 L CNN
F 1 "2u2" H 3960 1570 50  0000 L CNN
F 2 "Capacitors_Elko_ThroughHole:Elko_vert_11x5mm_RM2_CopperClear" H 3950 1650 60  0001 C CNN
F 3 "" H 3950 1650 60  0000 C CNN
	1    3950 1650
	1    0    0    -1  
$EndComp
$Comp
L C_Small C6
U 1 1 55EB1412
P 4100 1650
F 0 "C6" H 4110 1720 50  0000 L CNN
F 1 "2200uF" H 4110 1570 50  0000 L CNN
F 2 "Capacitors_Elko_ThroughHole:Elko_vert_20x10mm_RM5_CopperClear" H 4100 1650 60  0001 C CNN
F 3 "" H 4100 1650 60  0000 C CNN
	1    4100 1650
	1    0    0    -1  
$EndComp
Connection ~ 3950 1550
Connection ~ 4100 1550
Wire Wire Line
	4100 1750 4100 1800
Wire Wire Line
	3950 1800 4350 1800
Connection ~ 4350 1800
Wire Wire Line
	3950 1800 3950 1750
Connection ~ 4100 1800
$Comp
L XPpower U1
U 1 1 55EB165B
P 8550 5150
F 0 "U1" H 8550 5150 60  0000 C CNN
F 1 "XPpower" H 8550 4950 60  0000 C CNN
F 2 "Libs:MCE05S15D" H 8650 5150 60  0001 C CNN
F 3 "" H 8650 5150 60  0000 C CNN
	1    8550 5150
	1    0    0    -1  
$EndComp
Text Label 3450 1700 0    60   ~ 0
Vsource
Wire Wire Line
	3450 1400 3450 1700
Text Label 9950 5500 0    60   ~ 0
Vsource
$Comp
L GND #PWR28
U 1 1 55EB190E
P 8150 5300
F 0 "#PWR28" H 8150 5050 50  0001 C CNN
F 1 "GND" H 8150 5150 50  0000 C CNN
F 2 "" H 8150 5300 60  0000 C CNN
F 3 "" H 8150 5300 60  0000 C CNN
	1    8150 5300
	1    0    0    -1  
$EndComp
Wire Wire Line
	8150 5300 8150 5250
Wire Wire Line
	8150 5250 8250 5250
$Comp
L +5V #PWR27
U 1 1 55EB1957
P 8150 5050
F 0 "#PWR27" H 8150 4900 50  0001 C CNN
F 1 "+5V" H 8150 5190 50  0000 C CNN
F 2 "" H 8150 5050 60  0000 C CNN
F 3 "" H 8150 5050 60  0000 C CNN
	1    8150 5050
	1    0    0    -1  
$EndComp
Wire Wire Line
	8150 5050 8250 5050
$Comp
L R R6
U 1 1 55EB1A78
P 3850 1700
F 0 "R6" V 3930 1700 50  0000 C CNN
F 1 "R" V 3850 1700 50  0000 C CNN
F 2 "Resistors_SMD:R_0603_HandSoldering" V 3780 1700 30  0001 C CNN
F 3 "" H 3850 1700 30  0000 C CNN
	1    3850 1700
	1    0    0    -1  
$EndComp
Connection ~ 3850 1550
$Comp
L R R7
U 1 1 55EB1B36
P 3850 2000
F 0 "R7" V 3930 2000 50  0000 C CNN
F 1 "R" V 3850 2000 50  0000 C CNN
F 2 "Resistors_SMD:R_0603_HandSoldering" V 3780 2000 30  0001 C CNN
F 3 "" H 3850 2000 30  0000 C CNN
	1    3850 2000
	1    0    0    -1  
$EndComp
$Comp
L GND #PWR10
U 1 1 55EB1C4A
P 3850 2150
F 0 "#PWR10" H 3850 1900 50  0001 C CNN
F 1 "GND" H 3850 2000 50  0000 C CNN
F 2 "" H 3850 2150 60  0000 C CNN
F 3 "" H 3850 2150 60  0000 C CNN
	1    3850 2150
	1    0    0    -1  
$EndComp
Text Label 3850 1850 2    60   ~ 0
Vcells
Text Label 3250 1850 0    60   ~ 0
G1
Text Label 10050 5050 0    60   ~ 0
Vgate
Text Label 6850 1650 0    60   ~ 0
Vsource
Text Label 6850 1450 0    60   ~ 0
Vgate
Text Label 5850 1450 2    60   ~ 0
PWM
Text Label 7150 1550 0    60   ~ 0
G1
$Comp
L R R1
U 1 1 55EC8D1C
P 2000 1750
F 0 "R1" V 2080 1750 50  0000 C CNN
F 1 "Shunt_panel" V 2150 1800 50  0000 C CNN
F 2 "Resistors_SMD:R_2816_HandSoldering" V 1930 1750 30  0001 C CNN
F 3 "" H 2000 1750 30  0000 C CNN
	1    2000 1750
	0    1    1    0   
$EndComp
Wire Wire Line
	2150 1750 2450 1750
Wire Wire Line
	1850 1750 1850 1850
Wire Wire Line
	1850 1850 1800 1850
Text Label 1800 1850 3    60   ~ 0
V+_ina226
Connection ~ 1850 1750
$Comp
L INA226 U2
U 1 1 55EC9467
P 2500 3350
F 0 "U2" H 2500 3350 60  0000 C CNN
F 1 "INA226" H 2500 3450 60  0000 C CNN
F 2 "Housings_SSOP:MSOP-10_3x3mm_Pitch0.5mm" H 2500 3350 60  0001 C CNN
F 3 "" H 2500 3350 60  0000 C CNN
	1    2500 3350
	1    0    0    -1  
$EndComp
$Comp
L INA209 U3
U 1 1 55EC9932
P 6450 3500
F 0 "U3" H 6050 4000 60  0000 C CNN
F 1 "INA209" H 6200 3450 60  0000 C CNN
F 2 "Housings_SSOP:TSSOP-16_4.4x5mm_Pitch0.65mm" H 6900 2500 60  0001 C CNN
F 3 "" H 6900 2500 60  0000 C CNN
	1    6450 3500
	1    0    0    -1  
$EndComp
$Comp
L R R8
U 1 1 55EC9D17
P 4250 1550
F 0 "R8" V 4330 1550 50  0000 C CNN
F 1 "Shunt_Bat" V 4150 1550 50  0000 C CNN
F 2 "Resistors_SMD:R_2816_HandSoldering" V 4180 1550 30  0001 C CNN
F 3 "" H 4250 1550 30  0000 C CNN
	1    4250 1550
	0    1    1    0   
$EndComp
Wire Wire Line
	3850 1550 4100 1550
Wire Wire Line
	4400 1100 4400 1600
Text Label 5450 3300 2    60   ~ 0
Bat_v+
Text Label 4100 1200 2    60   ~ 0
Bat_v+
Wire Wire Line
	4100 1550 4100 1200
Text Label 4350 1100 2    60   ~ 0
Bat_v-
Wire Wire Line
	4350 1100 4400 1100
Connection ~ 4400 1550
Text Label 5450 3750 2    60   ~ 0
Bat_v-
$Comp
L GND #PWR15
U 1 1 55ECABA8
P 6250 4400
F 0 "#PWR15" H 6250 4150 50  0001 C CNN
F 1 "GND" H 6250 4250 50  0000 C CNN
F 2 "" H 6250 4400 60  0000 C CNN
F 3 "" H 6250 4400 60  0000 C CNN
	1    6250 4400
	1    0    0    -1  
$EndComp
$Comp
L GND #PWR16
U 1 1 55ECAC7F
P 6350 4400
F 0 "#PWR16" H 6350 4150 50  0001 C CNN
F 1 "GND" H 6350 4250 50  0000 C CNN
F 2 "" H 6350 4400 60  0000 C CNN
F 3 "" H 6350 4400 60  0000 C CNN
	1    6350 4400
	1    0    0    -1  
$EndComp
$Comp
L +3.3V #PWR17
U 1 1 55ECADCF
P 6450 2750
F 0 "#PWR17" H 6450 2600 50  0001 C CNN
F 1 "+3.3V" H 6450 2890 50  0000 C CNN
F 2 "" H 6450 2750 60  0000 C CNN
F 3 "" H 6450 2750 60  0000 C CNN
	1    6450 2750
	1    0    0    -1  
$EndComp
$Comp
L +3.3V #PWR18
U 1 1 55ECAEF1
P 6550 2750
F 0 "#PWR18" H 6550 2600 50  0001 C CNN
F 1 "+3.3V" H 6550 2890 50  0000 C CNN
F 2 "" H 6550 2750 60  0000 C CNN
F 3 "" H 6550 2750 60  0000 C CNN
	1    6550 2750
	1    0    0    -1  
$EndComp
$Comp
L +3.3V #PWR25
U 1 1 55ECAF23
P 8050 3350
F 0 "#PWR25" H 8050 3200 50  0001 C CNN
F 1 "+3.3V" H 8050 3490 50  0000 C CNN
F 2 "" H 8050 3350 60  0000 C CNN
F 3 "" H 8050 3350 60  0000 C CNN
	1    8050 3350
	1    0    0    -1  
$EndComp
$Comp
L R R11
U 1 1 55ECAFB6
P 8050 3500
F 0 "R11" V 8130 3500 50  0000 C CNN
F 1 "4k7" V 8050 3500 50  0000 C CNN
F 2 "Resistors_SMD:R_0603_HandSoldering" V 7980 3500 30  0001 C CNN
F 3 "" H 8050 3500 30  0000 C CNN
	1    8050 3500
	1    0    0    -1  
$EndComp
$Comp
L +3.3V #PWR29
U 1 1 55ECB09E
P 8300 3350
F 0 "#PWR29" H 8300 3200 50  0001 C CNN
F 1 "+3.3V" H 8300 3490 50  0000 C CNN
F 2 "" H 8300 3350 60  0000 C CNN
F 3 "" H 8300 3350 60  0000 C CNN
	1    8300 3350
	1    0    0    -1  
$EndComp
$Comp
L R R12
U 1 1 55ECB0A4
P 8300 3500
F 0 "R12" V 8380 3500 50  0000 C CNN
F 1 "4k7" V 8300 3500 50  0000 C CNN
F 2 "Resistors_SMD:R_0603_HandSoldering" V 8230 3500 30  0001 C CNN
F 3 "" H 8300 3500 30  0000 C CNN
	1    8300 3500
	1    0    0    -1  
$EndComp
Wire Wire Line
	7100 3750 8050 3750
Wire Wire Line
	8050 3750 8050 3650
Wire Wire Line
	8300 3650 8300 3850
Wire Wire Line
	8300 3850 7100 3850
Text Label 8100 3850 0    60   ~ 0
SDA
Text Label 7850 3750 0    60   ~ 0
SCL
$Comp
L +3.3V #PWR22
U 1 1 55ECB1ED
P 7250 3150
F 0 "#PWR22" H 7250 3000 50  0001 C CNN
F 1 "+3.3V" H 7250 3290 50  0000 C CNN
F 2 "" H 7250 3150 60  0000 C CNN
F 3 "" H 7250 3150 60  0000 C CNN
	1    7250 3150
	1    0    0    -1  
$EndComp
Wire Wire Line
	7250 3150 7250 3250
Wire Wire Line
	7250 3250 7100 3250
$Comp
L GND #PWR21
U 1 1 55ECB26C
P 7150 4400
F 0 "#PWR21" H 7150 4150 50  0001 C CNN
F 1 "GND" H 7150 4250 50  0000 C CNN
F 2 "" H 7150 4400 60  0000 C CNN
F 3 "" H 7150 4400 60  0000 C CNN
	1    7150 4400
	1    0    0    -1  
$EndComp
Wire Wire Line
	7150 3950 7150 4400
Wire Wire Line
	7150 4050 7100 4050
Wire Wire Line
	7100 3950 7150 3950
Connection ~ 7150 4050
Text Label 7100 3350 0    60   ~ 0
Pin---
$Comp
L R R9
U 1 1 55ECB547
P 5600 3300
F 0 "R9" V 5680 3300 50  0000 C CNN
F 1 "10" V 5600 3300 50  0000 C CNN
F 2 "Resistors_SMD:R_0603_HandSoldering" V 5530 3300 30  0001 C CNN
F 3 "" H 5600 3300 30  0000 C CNN
	1    5600 3300
	0    1    1    0   
$EndComp
$Comp
L R R10
U 1 1 55ECB724
P 5600 3750
F 0 "R10" V 5680 3750 50  0000 C CNN
F 1 "10" V 5600 3750 50  0000 C CNN
F 2 "Resistors_SMD:R_0603_HandSoldering" V 5530 3750 30  0001 C CNN
F 3 "" H 5600 3750 30  0000 C CNN
	1    5600 3750
	0    1    1    0   
$EndComp
$Comp
L C C7
U 1 1 55ECB772
P 5800 3500
F 0 "C7" H 5825 3600 50  0000 L CNN
F 1 "100n" H 5825 3400 50  0000 L CNN
F 2 "Capacitors_SMD:C_0603_HandSoldering" H 5838 3350 30  0001 C CNN
F 3 "" H 5800 3500 60  0000 C CNN
	1    5800 3500
	1    0    0    -1  
$EndComp
Wire Wire Line
	5750 3300 5800 3300
Wire Wire Line
	5800 3300 5800 3350
Wire Wire Line
	5750 3750 5800 3750
Wire Wire Line
	5800 3750 5800 3650
Text Label 1750 3500 2    60   ~ 0
SCL
Text Label 1750 3400 2    60   ~ 0
SDA
$Comp
L +3.3V #PWR2
U 1 1 55ECC073
P 1700 3050
F 0 "#PWR2" H 1700 2900 50  0001 C CNN
F 1 "+3.3V" H 1700 3190 50  0000 C CNN
F 2 "" H 1700 3050 60  0000 C CNN
F 3 "" H 1700 3050 60  0000 C CNN
	1    1700 3050
	1    0    0    -1  
$EndComp
Wire Wire Line
	1700 3200 1750 3200
Wire Wire Line
	1700 3050 1700 3200
Wire Wire Line
	1750 3100 1700 3100
Connection ~ 1700 3100
Text Label 3800 2900 0    60   ~ 0
V+_ina226
$Comp
L GND #PWR11
U 1 1 55ECC391
P 3850 3850
F 0 "#PWR11" H 3850 3600 50  0001 C CNN
F 1 "GND" H 3850 3700 50  0000 C CNN
F 2 "" H 3850 3850 60  0000 C CNN
F 3 "" H 3850 3850 60  0000 C CNN
	1    3850 3850
	1    0    0    -1  
$EndComp
Wire Wire Line
	3850 3200 3850 3850
$Comp
L R R5
U 1 1 55ECC5B1
P 3600 3200
F 0 "R5" V 3680 3200 50  0000 C CNN
F 1 "10" V 3600 3200 50  0000 C CNN
F 2 "Resistors_SMD:R_0603_HandSoldering" V 3530 3200 30  0001 C CNN
F 3 "" H 3600 3200 30  0000 C CNN
	1    3600 3200
	0    1    1    0   
$EndComp
Wire Wire Line
	3750 3200 3850 3200
$Comp
L C C3
U 1 1 55ECC8E3
P 3400 3050
F 0 "C3" H 3425 3150 50  0000 L CNN
F 1 "100n" H 3425 2950 50  0000 L CNN
F 2 "Capacitors_SMD:C_0603_HandSoldering" H 3438 2900 30  0001 C CNN
F 3 "" H 3400 3050 60  0000 C CNN
	1    3400 3050
	1    0    0    -1  
$EndComp
Wire Wire Line
	3300 3200 3450 3200
Connection ~ 3400 3200
Wire Wire Line
	3300 3100 3300 2900
Wire Wire Line
	3300 2900 3450 2900
$Comp
L R R4
U 1 1 55ECCB4B
P 3600 2900
F 0 "R4" V 3680 2900 50  0000 C CNN
F 1 "10" V 3600 2900 50  0000 C CNN
F 2 "Resistors_SMD:R_0603_HandSoldering" V 3530 2900 30  0001 C CNN
F 3 "" H 3600 2900 30  0000 C CNN
	1    3600 2900
	0    1    1    0   
$EndComp
Connection ~ 3400 2900
Wire Wire Line
	3800 2900 3750 2900
Wire Wire Line
	3300 3400 3850 3400
Connection ~ 3850 3400
Text Label 4200 3350 0    60   ~ 0
V+_ina226
Wire Wire Line
	3300 3350 3300 3300
$Comp
L +3.3V #PWR8
U 1 1 55ECCF0F
P 3150 3750
F 0 "#PWR8" H 3150 3600 50  0001 C CNN
F 1 "+3.3V" H 3150 3890 50  0000 C CNN
F 2 "" H 3150 3750 60  0000 C CNN
F 3 "" H 3150 3750 60  0000 C CNN
	1    3150 3750
	1    0    0    -1  
$EndComp
Wire Wire Line
	3150 3750 3300 3750
Wire Wire Line
	3300 3750 3300 3500
$Comp
L C C4
U 1 1 55ECD0EB
P 3450 3650
F 0 "C4" H 3475 3750 50  0000 L CNN
F 1 "100n" H 3475 3550 50  0000 L CNN
F 2 "Capacitors_SMD:C_0603_HandSoldering" H 3488 3500 30  0001 C CNN
F 3 "" H 3450 3650 60  0000 C CNN
	1    3450 3650
	1    0    0    -1  
$EndComp
Wire Wire Line
	3450 3800 3850 3800
Connection ~ 3850 3800
Wire Wire Line
	3300 3500 3450 3500
Text Label 1750 3300 2    60   ~ 0
pin_alert
$Comp
L D_Schottky_Small D1
U 1 1 55ECDE9A
P 3450 1800
F 0 "D1" H 3400 1880 50  0000 L CNN
F 1 "D" H 3170 1720 50  0000 L CNN
F 2 "Diodes_ThroughHole:Diode_TO-220_Vertical" V 3450 1800 60  0001 C CNN
F 3 "" V 3450 1800 60  0000 C CNN
	1    3450 1800
	0    1    1    0   
$EndComp
$Comp
L GND #PWR9
U 1 1 55ECDF0E
P 3450 2150
F 0 "#PWR9" H 3450 1900 50  0001 C CNN
F 1 "GND" H 3450 2000 50  0000 C CNN
F 2 "" H 3450 2150 60  0000 C CNN
F 3 "" H 3450 2150 60  0000 C CNN
	1    3450 2150
	1    0    0    -1  
$EndComp
Wire Wire Line
	3450 2150 3450 1900
$Comp
L HCPL-3140 IC1
U 1 1 55ECE55F
P 6500 1550
F 0 "IC1" H 6290 1740 40  0000 C CNN
F 1 "HCPL-3140" H 6630 1360 40  0000 C CNN
F 2 "Sockets_DIP:DIP-8__300_ELL" H 6290 1370 30  0000 C CIN
F 3 "" H 6500 1550 60  0000 C CNN
	1    6500 1550
	1    0    0    -1  
$EndComp
$Comp
L +3.3V #PWR32
U 1 1 55ECEBE4
P 8550 2050
F 0 "#PWR32" H 8550 1900 50  0001 C CNN
F 1 "+3.3V" H 8550 2190 50  0000 C CNN
F 2 "" H 8550 2050 60  0000 C CNN
F 3 "" H 8550 2050 60  0000 C CNN
	1    8550 2050
	1    0    0    -1  
$EndComp
$Comp
L R R13
U 1 1 55ECEFFD
P 6000 1450
F 0 "R13" V 6080 1450 50  0000 C CNN
F 1 "R" V 6000 1450 50  0000 C CNN
F 2 "Resistors_SMD:R_0603_HandSoldering" V 5930 1450 30  0001 C CNN
F 3 "" H 6000 1450 30  0000 C CNN
	1    6000 1450
	0    1    1    0   
$EndComp
$Comp
L AP1117 U4
U 1 1 55ECF4C3
P 8100 1100
F 0 "U4" H 8200 850 50  0000 C CNN
F 1 "AP1117" H 8100 1350 50  0000 C CNN
F 2 "TO_SOT_Packages_SMD:SOT-223" H 8100 1100 60  0001 C CNN
F 3 "" H 8100 1100 60  0000 C CNN
	1    8100 1100
	1    0    0    -1  
$EndComp
$Comp
L AP1117 U5
U 1 1 55ECF666
P 8100 2150
F 0 "U5" H 8200 1900 50  0000 C CNN
F 1 "AP1117" H 8100 2400 50  0000 C CNN
F 2 "TO_SOT_Packages_SMD:SOT-223" H 8100 2150 60  0001 C CNN
F 3 "" H 8100 2150 60  0000 C CNN
	1    8100 2150
	1    0    0    -1  
$EndComp
$Comp
L +5V #PWR30
U 1 1 55ECF84D
P 8500 1000
F 0 "#PWR30" H 8500 850 50  0001 C CNN
F 1 "+5V" H 8500 1140 50  0000 C CNN
F 2 "" H 8500 1000 60  0000 C CNN
F 3 "" H 8500 1000 60  0000 C CNN
	1    8500 1000
	1    0    0    -1  
$EndComp
$Comp
L +5V #PWR24
U 1 1 55ECF8B5
P 7700 2050
F 0 "#PWR24" H 7700 1900 50  0001 C CNN
F 1 "+5V" H 7700 2190 50  0000 C CNN
F 2 "" H 7700 2050 60  0000 C CNN
F 3 "" H 7700 2050 60  0000 C CNN
	1    7700 2050
	1    0    0    -1  
$EndComp
$Comp
L C C9
U 1 1 55ECF900
P 7700 2300
F 0 "C9" H 7725 2400 50  0000 L CNN
F 1 "C" H 7725 2200 50  0000 L CNN
F 2 "Capacitors_SMD:C_0805_HandSoldering" H 7738 2150 30  0001 C CNN
F 3 "" H 7700 2300 60  0000 C CNN
	1    7700 2300
	1    0    0    -1  
$EndComp
$Comp
L C C11
U 1 1 55ECF999
P 8550 2300
F 0 "C11" H 8575 2400 50  0000 L CNN
F 1 "C" H 8575 2200 50  0000 L CNN
F 2 "Capacitors_SMD:C_0805_HandSoldering" H 8588 2150 30  0001 C CNN
F 3 "" H 8550 2300 60  0000 C CNN
	1    8550 2300
	1    0    0    -1  
$EndComp
$Comp
L C C10
U 1 1 55ECFA22
P 8700 1250
F 0 "C10" H 8725 1350 50  0000 L CNN
F 1 "C" H 8725 1150 50  0000 L CNN
F 2 "Capacitors_SMD:C_0805_HandSoldering" H 8738 1100 30  0001 C CNN
F 3 "" H 8700 1250 60  0000 C CNN
	1    8700 1250
	1    0    0    -1  
$EndComp
$Comp
L C C8
U 1 1 55ECFABE
P 7700 1250
F 0 "C8" H 7725 1350 50  0000 L CNN
F 1 "C" H 7725 1150 50  0000 L CNN
F 2 "Capacitors_SMD:C_0805_HandSoldering" H 7738 1100 30  0001 C CNN
F 3 "" H 7700 1250 60  0000 C CNN
	1    7700 1250
	1    0    0    -1  
$EndComp
Wire Wire Line
	7700 1100 7800 1100
Connection ~ 8100 1400
Wire Wire Line
	8400 1100 8700 1100
Wire Wire Line
	8500 1100 8500 1000
Wire Wire Line
	7700 2150 7700 2050
Wire Wire Line
	7700 2150 7800 2150
Wire Wire Line
	8400 2150 8550 2150
Wire Wire Line
	8550 2150 8550 2050
Wire Wire Line
	7700 2450 8550 2450
Connection ~ 8100 2450
$Comp
L GND #PWR31
U 1 1 55ED052D
P 8500 1700
F 0 "#PWR31" H 8500 1450 50  0001 C CNN
F 1 "GND" H 8500 1550 50  0000 C CNN
F 2 "" H 8500 1700 60  0000 C CNN
F 3 "" H 8500 1700 60  0000 C CNN
	1    8500 1700
	1    0    0    -1  
$EndComp
$Comp
L GND #PWR26
U 1 1 55ED05A1
P 8100 2450
F 0 "#PWR26" H 8100 2200 50  0001 C CNN
F 1 "GND" H 8100 2300 50  0000 C CNN
F 2 "" H 8100 2450 60  0000 C CNN
F 3 "" H 8100 2450 60  0000 C CNN
	1    8100 2450
	1    0    0    -1  
$EndComp
Text Label 3000 4650 2    60   ~ 0
SDA
Text Label 3000 4550 2    60   ~ 0
SCL
$Comp
L +3.3V #PWR5
U 1 1 560C6808
P 2700 4750
F 0 "#PWR5" H 2700 4600 50  0001 C CNN
F 1 "+3.3V" H 2700 4890 50  0000 C CNN
F 2 "" H 2700 4750 60  0000 C CNN
F 3 "" H 2700 4750 60  0000 C CNN
	1    2700 4750
	1    0    0    -1  
$EndComp
Wire Wire Line
	2700 4750 3000 4750
$Comp
L GND #PWR6
U 1 1 560C6F23
P 2700 4850
F 0 "#PWR6" H 2700 4600 50  0001 C CNN
F 1 "GND" H 2700 4700 50  0000 C CNN
F 2 "" H 2700 4850 60  0000 C CNN
F 3 "" H 2700 4850 60  0000 C CNN
	1    2700 4850
	1    0    0    -1  
$EndComp
Wire Wire Line
	2700 4850 3000 4850
$Comp
L +5V #PWR4
U 1 1 560C718F
P 2700 4350
F 0 "#PWR4" H 2700 4200 50  0001 C CNN
F 1 "+5V" H 2700 4490 50  0000 C CNN
F 2 "" H 2700 4350 60  0000 C CNN
F 3 "" H 2700 4350 60  0000 C CNN
	1    2700 4350
	1    0    0    -1  
$EndComp
Wire Wire Line
	2700 4350 2700 4450
Wire Wire Line
	2700 4450 3000 4450
$Comp
L Q_NMOS_GDS Q1
U 1 1 560C7BDC
P 3250 1650
F 0 "Q1" H 3550 1700 50  0000 R CNN
F 1 "Q_NMOS_GDS" H 3900 1600 50  0000 R CNN
F 2 "Transistors_TO-247:TO-247_Vertical_Neutral123" H 3450 1750 29  0001 C CNN
F 3 "" H 3250 1650 60  0000 C CNN
	1    3250 1650
	0    -1   -1   0   
$EndComp
Wire Wire Line
	2150 1550 3050 1550
Text Label 1650 4550 2    60   ~ 0
Vcells
Text Label 1650 4650 2    60   ~ 0
RX
Text Label 1650 4750 2    60   ~ 0
TX
Text Label 1650 4450 2    60   ~ 0
vPanel
$Comp
L GND #PWR1
U 1 1 560C8DE1
P 1550 4850
F 0 "#PWR1" H 1550 4600 50  0001 C CNN
F 1 "GND" H 1550 4700 50  0000 C CNN
F 2 "" H 1550 4850 60  0000 C CNN
F 3 "" H 1550 4850 60  0000 C CNN
	1    1550 4850
	1    0    0    -1  
$EndComp
Wire Wire Line
	1550 4850 1650 4850
$Comp
L CONN_01X05 P3
U 1 1 560C8F2B
P 1850 4650
F 0 "P3" H 1850 4950 50  0000 C CNN
F 1 "CONN_01X05" V 1950 4650 50  0000 C CNN
F 2 "Pin_Headers:Pin_Header_Angled_1x05" H 1850 4650 60  0001 C CNN
F 3 "" H 1850 4650 60  0000 C CNN
	1    1850 4650
	1    0    0    1   
$EndComp
$Comp
L CONN_01X06 P4
U 1 1 560CBC4D
P 3200 4600
F 0 "P4" H 3200 4950 50  0000 C CNN
F 1 "CONN_01X06" V 3300 4600 50  0000 C CNN
F 2 "Pin_Headers:Pin_Header_Angled_1x06" H 3200 4600 60  0001 C CNN
F 3 "" H 3200 4600 60  0000 C CNN
	1    3200 4600
	1    0    0    1   
$EndComp
Text Label 3000 4350 2    60   ~ 0
PWM
Wire Wire Line
	3300 3350 4050 3350
Wire Wire Line
	4050 3350 4050 3650
Wire Wire Line
	4050 3650 4200 3650
$Comp
L R R14
U 1 1 561924B9
P 4200 3500
F 0 "R14" V 4280 3500 50  0000 C CNN
F 1 "100" V 4200 3500 50  0000 C CNN
F 2 "Resistors_SMD:R_0603_HandSoldering" V 4130 3500 30  0001 C CNN
F 3 "" H 4200 3500 30  0000 C CNN
	1    4200 3500
	1    0    0    -1  
$EndComp
$Comp
L ZENERsmall D3
U 1 1 56192798
P 4200 3750
F 0 "D3" H 4200 3850 40  0000 C CNN
F 1 "12V" H 4200 3650 30  0000 C CNN
F 2 "Diodes_ThroughHole:Diode_P600_Vertical_AnodeUp" H 4200 3750 60  0001 C CNN
F 3 "" H 4200 3750 60  0000 C CNN
	1    4200 3750
	0    1    1    0   
$EndComp
$Comp
L ZENERsmall D4
U 1 1 56192837
P 4200 3950
F 0 "D4" H 4200 4050 40  0000 C CNN
F 1 "12V" H 4200 3850 30  0000 C CNN
F 2 "Diodes_ThroughHole:Diode_P600_Vertical_AnodeUp" H 4200 3950 60  0001 C CNN
F 3 "" H 4200 3950 60  0000 C CNN
	1    4200 3950
	0    1    1    0   
$EndComp
$Comp
L ZENERsmall D5
U 1 1 561928CA
P 4200 4150
F 0 "D5" H 4200 4250 40  0000 C CNN
F 1 "12V" H 4200 4050 30  0000 C CNN
F 2 "Diodes_ThroughHole:Diode_P600_Vertical_AnodeUp" H 4200 4150 60  0001 C CNN
F 3 "" H 4200 4150 60  0000 C CNN
	1    4200 4150
	0    1    1    0   
$EndComp
$Comp
L GND #PWR12
U 1 1 56192FAC
P 4200 4250
F 0 "#PWR12" H 4200 4000 50  0001 C CNN
F 1 "GND" H 4200 4100 50  0000 C CNN
F 2 "" H 4200 4250 60  0000 C CNN
F 3 "" H 4200 4250 60  0000 C CNN
	1    4200 4250
	1    0    0    -1  
$EndComp
Connection ~ 4200 3650
$Comp
L C C12
U 1 1 56194482
P 7050 2750
F 0 "C12" H 7075 2850 50  0000 L CNN
F 1 "100n" H 7075 2650 50  0000 L CNN
F 2 "Capacitors_SMD:C_0603_HandSoldering" H 7088 2600 30  0001 C CNN
F 3 "" H 7050 2750 60  0000 C CNN
	1    7050 2750
	1    0    0    -1  
$EndComp
$Comp
L +3.3V #PWR19
U 1 1 56194BD7
P 7050 2600
F 0 "#PWR19" H 7050 2450 50  0001 C CNN
F 1 "+3.3V" H 7050 2740 50  0000 C CNN
F 2 "" H 7050 2600 60  0000 C CNN
F 3 "" H 7050 2600 60  0000 C CNN
	1    7050 2600
	1    0    0    -1  
$EndComp
$Comp
L GND #PWR20
U 1 1 561952F0
P 7050 2900
F 0 "#PWR20" H 7050 2650 50  0001 C CNN
F 1 "GND" H 7050 2750 50  0000 C CNN
F 2 "" H 7050 2900 60  0000 C CNN
F 3 "" H 7050 2900 60  0000 C CNN
	1    7050 2900
	1    0    0    -1  
$EndComp
Connection ~ 8500 1100
$Comp
L R R15
U 1 1 56197CEE
P 8500 1250
F 0 "R15" V 8580 1250 50  0000 C CNN
F 1 "R" V 8500 1250 50  0000 C CNN
F 2 "Resistors_SMD:R_0603_HandSoldering" V 8430 1250 30  0001 C CNN
F 3 "" H 8500 1250 30  0000 C CNN
	1    8500 1250
	1    0    0    -1  
$EndComp
$Comp
L R R16
U 1 1 56198004
P 8500 1550
F 0 "R16" V 8580 1550 50  0000 C CNN
F 1 "R" V 8500 1550 50  0000 C CNN
F 2 "Resistors_SMD:R_0603_HandSoldering" V 8430 1550 30  0001 C CNN
F 3 "" H 8500 1550 30  0000 C CNN
	1    8500 1550
	1    0    0    -1  
$EndComp
Wire Wire Line
	8700 1700 8700 1400
Connection ~ 8500 1700
Wire Wire Line
	8500 1400 8100 1400
Wire Wire Line
	8500 1700 8700 1700
$Comp
L GND #PWR23
U 1 1 561984D9
P 7700 1400
F 0 "#PWR23" H 7700 1150 50  0001 C CNN
F 1 "GND" H 7700 1250 50  0000 C CNN
F 2 "" H 7700 1400 60  0000 C CNN
F 3 "" H 7700 1400 60  0000 C CNN
	1    7700 1400
	1    0    0    -1  
$EndComp
$Comp
L GND #PWR14
U 1 1 5619904E
P 6150 1650
F 0 "#PWR14" H 6150 1400 50  0001 C CNN
F 1 "GND" H 6150 1500 50  0000 C CNN
F 2 "" H 6150 1650 60  0000 C CNN
F 3 "" H 6150 1650 60  0000 C CNN
	1    6150 1650
	1    0    0    -1  
$EndComp
Wire Wire Line
	1850 1650 1850 1350
NoConn ~ 2450 1350
$Comp
L D_Schottky_x2_KCom_AKA D2
U 1 1 5619B270
P 2150 1350
F 0 "D2" H 2200 1250 50  0000 C CNN
F 1 "D_Schottky_x2_KCom_AKA" H 2150 1450 50  0000 C CNN
F 2 "Diodes_ThroughHole:Diode_TO-247_Dual_CommonCathode_Vertical" H 2150 1350 60  0001 C CNN
F 3 "" H 2150 1350 60  0000 C CNN
	1    2150 1350
	1    0    0    -1  
$EndComp
Wire Wire Line
	9250 5050 8900 5050
Wire Wire Line
	8900 5500 9950 5500
Wire Wire Line
	9650 5500 9650 5350
Wire Wire Line
	8900 5500 8900 5250
Connection ~ 9650 5500
$Comp
L CP1_Small C13
U 1 1 561A4CD6
P 8150 5150
F 0 "C13" H 8160 5220 50  0000 L CNN
F 1 "CP1_Small" H 8160 5070 50  0000 L CNN
F 2 "Capacitors_Tantalum_SMD:TantalC_SizeC_EIA-6032_HandSoldering" H 8150 5150 60  0001 C CNN
F 3 "" H 8150 5150 60  0000 C CNN
	1    8150 5150
	1    0    0    -1  
$EndComp
$Comp
L CP1_Small C14
U 1 1 561A4DB0
P 9050 5150
F 0 "C14" H 9060 5220 50  0000 L CNN
F 1 "CP1_Small" H 9060 5070 50  0000 L CNN
F 2 "Capacitors_SMD:c_elec_6.3x7.7" H 9050 5150 60  0001 C CNN
F 3 "" H 9050 5150 60  0000 C CNN
	1    9050 5150
	1    0    0    -1  
$EndComp
Wire Wire Line
	8900 5250 9050 5250
Connection ~ 8900 5250
$Comp
L C C15
U 1 1 561A4ED7
P 9250 5200
F 0 "C15" H 9275 5300 50  0000 L CNN
F 1 "C" H 9275 5100 50  0000 L CNN
F 2 "Capacitors_SMD:C_0805_HandSoldering" H 9288 5050 30  0001 C CNN
F 3 "" H 9250 5200 60  0000 C CNN
	1    9250 5200
	1    0    0    -1  
$EndComp
Wire Wire Line
	9250 5350 9250 5500
Connection ~ 9250 5500
$Comp
L C C16
U 1 1 561A501C
P 10050 5200
F 0 "C16" H 10075 5300 50  0000 L CNN
F 1 "C" H 10075 5100 50  0000 L CNN
F 2 "Capacitors_SMD:C_0805_HandSoldering" H 10088 5050 30  0001 C CNN
F 3 "" H 10050 5200 60  0000 C CNN
	1    10050 5200
	1    0    0    -1  
$EndComp
Wire Wire Line
	9950 5500 9950 5350
Wire Wire Line
	9950 5350 10050 5350
Connection ~ 8150 5050
Connection ~ 8150 5250
Connection ~ 9050 5050
Connection ~ 9250 5050
$Comp
L D_Schottky_Small D6
U 1 1 561A64B7
P 4500 1600
F 0 "D6" H 4450 1680 50  0000 L CNN
F 1 "D" H 4220 1520 50  0000 L CNN
F 2 "Diodes_ThroughHole:Diode_TO-220_Vertical" V 4500 1600 60  0001 C CNN
F 3 "" V 4500 1600 60  0000 C CNN
	1    4500 1600
	-1   0    0    1   
$EndComp
$Comp
L R R17
U 1 1 561A725B
P 7000 1550
F 0 "R17" V 7080 1550 50  0000 C CNN
F 1 "10" V 7000 1550 50  0000 C CNN
F 2 "Resistors_SMD:R_0603_HandSoldering" V 6930 1550 30  0001 C CNN
F 3 "" H 7000 1550 30  0000 C CNN
	1    7000 1550
	0    1    1    0   
$EndComp
$Comp
L R R18
U 1 1 561A7842
P 7050 1850
F 0 "R18" V 7130 1850 50  0000 C CNN
F 1 "47K" V 7050 1850 50  0000 C CNN
F 2 "Resistors_SMD:R_0603_HandSoldering" V 6980 1850 30  0001 C CNN
F 3 "" H 7050 1850 30  0000 C CNN
	1    7050 1850
	0    1    1    0   
$EndComp
Wire Wire Line
	3400 1400 3450 1400
Connection ~ 3450 1550
Wire Wire Line
	3100 1400 3050 1400
Wire Wire Line
	3050 1400 3050 1550
Connection ~ 3050 1550
$Comp
L C C17
U 1 1 561A7E62
P 3250 1400
F 0 "C17" H 3275 1500 50  0000 L CNN
F 1 "10n" H 3275 1300 50  0000 L CNN
F 2 "Capacitors_SMD:C_0805_HandSoldering" H 3288 1250 30  0001 C CNN
F 3 "" H 3250 1400 60  0000 C CNN
	1    3250 1400
	0    1    1    0   
$EndComp
Wire Wire Line
	7150 1550 7200 1550
Wire Wire Line
	7200 1550 7200 1850
Wire Wire Line
	6900 1850 6900 1650
Wire Wire Line
	6900 1650 6850 1650
$Comp
L LM7812ACT U6
U 1 1 561A960D
P 9650 5100
F 0 "U6" H 9450 5300 40  0000 C CNN
F 1 "LM7812ACT" H 9650 5300 40  0000 L CNN
F 2 "TO-220" H 9650 5200 30  0000 C CIN
F 3 "" H 9650 5100 60  0000 C CNN
	1    9650 5100
	1    0    0    -1  
$EndComp
Text Label 7700 1100 2    60   ~ 0
Vin_bat
Text Label 4600 1400 0    60   ~ 0
Vin_bat
Wire Wire Line
	4600 1600 4600 1400
Connection ~ 4600 1600
$EndSCHEMATC
